<?xml version="1.0" encoding="UTF-8"?>
<svg xmlns="http://www.w3.org/2000/svg" version="1.1" viewBox="0 0 2000 2000" space="preserve">
  <g transform="translate(-4.0678 75.932)">
    <g transform="matrix(1.0146,0,0,0.99609,475.94632,-7.9748481)">
      <path style="fill:#000000" d="m 382.44,728.81 c -22.95,-0.54 -37.72,31.91 -21.24,48.37 85.68,84.18 153.91,187.92 189.87,302.83 27.36,89.37 31.13,187.26 1.93,276.46 -29.48,96.01 -88.30,180.73 -159.58,250.47 -11.88,12.11 -24.99,23.17 -35.99,36.06 -10.87,17.95 5.00,44.61 26.13,42.88 17.87,-1.30 28.84,-17.63 41.14,-28.48 80.97,-77.93 148.86,-172.39 183.20,-280.26 33.83,-107.07 29.63,-224.55 -6.53,-330.46 C 561.18,928.78 490.13,822.32 400.83,735.87 c -5.13,-4.23 -11.60,-7.36 -18.39,-7.05 z"/>
      <path style="fill:#000000;stroke-width:0.96" d="m 298.80,835.24 c -20.91,-0.49 -34.40,25.32 -26.33,43.49 4.92,10.10 15.19,16.13 22.10,24.75 67.28,71.04 117.76,159.65 136.97,255.89 12.96,68.54 5.61,140.74 -21.82,204.98 -28.41,69.03 -75.87,128.66 -129.36,180.09 -7.59,7.07 -12.69,17.66 -9.78,28.11 3.01,15.44 19.50,28.84 35.43,23.60 17.45,-4.97 27.01,-21.92 40.07,-33.13 67.08,-69.46 121.08,-154.55 141.80,-249.77 22.04,-101.87 2.54,-210.07 -45.07,-301.97 C 411.16,948.87 369.18,891.54 318.71,843.02 c -5.66,-4.42 -12.55,-7.90 -19.91,-7.77 z"/>
      <path style="fill:#000000" d="m 214.43,940.74 c -22.62,-1.25 -36.48,30.25 -21.31,46.57 36.72,45.82 73.70,93.18 94.35,148.76 19.50,50.96 22.73,108.24 6.06,160.47 -18.28,59.07 -58.57,108.42 -103.01,150.22 -12.78,17.04 0.96,45.78 22.62,45.37 16.96,0.37 28.62,-14.39 39.39,-25.34 51.54,-52.48 93.24,-117.80 105.85,-191.22 13.98,-80.46 -8.73,-164.22 -52.57,-232.11 -20.98,-33.56 -41.84,-68.25 -71.59,-94.91 -5.58,-4.55 -12.43,-8.04 -19.81,-7.80 z"/>
      <path style="fill:#000000" d="M 472.82,7.36 C 455.95,8.05 445.66,23.62 434.77,34.33 375.50,98.96 322.99,172.55 296.61,257.04 c -12.10,40.80 -17.84,84.58 -9.26,126.67 7.51,20.43 40.62,23.19 50.82,3.67 9.18,-16.36 0.13,-35.16 2.66,-52.57 2.60,-57.24 27.07,-111.02 57.44,-158.80 -17.21,122.48 19.14,251.99 99.20,346.50 23.48,26.70 50.83,51.14 83.40,66.06 20.10,8.08 46.01,8.00 62.39,-7.90 14.01,-13.30 17.93,-33.69 17.36,-52.28 2.04,-22.18 17.92,-40.66 37.32,-50.40 29.24,-15.65 64.28,-18.12 96.36,-11.50 24.18,5.52 48.76,19.92 57.02,44.66 6.99,18.39 12.76,37.86 25.64,53.24 8.79,11.69 19.58,21.83 31.44,30.36 -33.79,13.28 -66.52,36.40 -80.40,71.17 -16.28,41.38 -5.49,89.53 20.09,124.75 27.11,40.01 52.40,81.78 66.67,128.21 29.68,89.99 27.18,189.05 -2.51,278.83 -34.58,110.06 -99.13,208.06 -172.05,296.50 -43.38,52.16 -90.65,100.92 -140.32,147.09 73.08,-108.05 129.74,-230.02 147.39,-360.20 16.43,-123.04 -4.31,-251.15 -61.12,-361.73 C 631.67,809.31 549.06,714.00 450.36,641.21 405.48,606.54 357.60,575.74 314.70,538.60 271.32,498.35 236.45,445.28 228.28,385.93 c -8.39,-66.30 10.90,-133.58 42.50,-191.56 9.60,-17.73 21.10,-34.70 30.42,-52.61 5.46,-20.34 -17.36,-40.81 -37.07,-33.88 -14.68,4.86 -22.95,18.98 -33.98,28.75 C 163.18,206.78 109.33,288.94 68.07,376.55 27.66,465.62 4.11,564.31 12.48,662.45 c 8.05,74.10 41.70,142.45 80.21,205.19 10.38,15.88 19.20,33.29 32.62,46.88 14.98,11.21 41.04,3.81 44.91,-15.39 3.69,-16.22 -7.91,-30.42 -16.37,-42.96 C 118.67,801.74 83.51,744.55 72.82,679.50 62.61,610.91 72.50,540.62 92.64,474.65 c 18.24,-58.58 45.60,-114.30 78.33,-165.97 -10.84,76.23 7.59,156.95 53.94,218.89 33.04,45.45 78.77,79.32 124.43,111.12 57.12,40.14 116.06,79.47 162.36,132.31 81.61,87.03 146.01,193.16 171.24,310.65 24.72,114.16 10.51,234.79 -32.75,342.92 -48.94,125.90 -128.99,237.10 -218.98,336.80 -22.38,24.89 -46.37,48.51 -68.05,73.95 -9.26,19.68 10.89,45.93 32.41,40.44 24.51,-10.45 43.86,-29.57 65.94,-44.04 148.01,-109.87 284.51,-237.77 390.97,-388.96 64.75,-93.29 116.71,-198.04 135.15,-310.95 14.77,-91.70 4.00,-187.82 -33.89,-272.86 -16.42,-37.93 -38.39,-73.12 -61.73,-107.10 -11.25,-20.02 -19.27,-45.46 -8.07,-66.96 12.62,-22.53 37.84,-33.42 61.09,-41.28 21.42,-7.19 44.85,-8.49 65.97,-16.94 17.54,-12.54 13.18,-45.07 -8.13,-50.95 -39.79,-4.60 -78.85,-30.91 -91.07,-70.32 -7.98,-25.20 -20.54,-50.53 -42.73,-66.09 -41.81,-32.45 -98.56,-40.52 -149.56,-30.27 -41.78,8.66 -82.57,32.66 -102.84,71.32 -8.81,17.14 -13.13,36.34 -14.17,55.51 -34.29,-16.46 -58.66,-47.33 -80.81,-77.31 C 449.17,354.79 431.85,214.83 477.92,97.15 484.92,78.31 494.31,60.28 501.99,41.71 505.90,24.56 490.23,6.53 472.82,7.36 Z"/>
    </g>
  </g>
</svg>
